Data Wrangling in R
…
```r
demo_data %>% filter(bmi > 20)
```

```
## # A tibble: 10,375 × 8
##     record age                   sex    grade race4         race7   bmi stweight
##      <dbl> <chr>                 <chr>  <chr> <chr>         <chr> <dbl>    <dbl>
##  1  333862 17 years old          Female 12th  White         White  20.2     57.2
##  2 1095530 15 years old          Male   10th  Black or Afr… Blac…  28.0     85.7
##  3 1303997 14 years old          Male   9th   All other ra… Mult…  24.5     66.7
##  4  926649 16 years old          Male   11th  All other ra… Asian  20.5     70.3
##  5  506337 18 years old or older Male   12th  Hispanic/Lat… Hisp…  33.1    123. 
##  6 1307180 16 years old          Male   10th  Hispanic/Lat… Hisp…  21.8     66.7
##  7 1312128 15 years old          Female 10th  White         White  22.0     65.8
##  8  770177 16 years old          Female 10th  White         White  32.4     86.2
##  9  938291 18 years old or older Female 12th  White         White  21.7     64.9
## 10 1306691 16 years old          Male   11th  White         White  28.3    102. 
## # ℹ 10,365 more rows
```
…
---

# `select()` `\(\sim\)` columns

- select columns (variables)
- no quotes needed around variable names
- can be used to rearrange columns
- uses special syntax that is flexible and has many options

```r
demo_data %>% select(record, grade)
```

```
## # A tibble: 20,000 × 2
##     record grade
##      <dbl> <chr>
##  1  931897 10th 
##  2  333862 12th 
##  3   36253 11th 
##  4 1095530 10th 
##  5 1303997 9th  
##  6  261619 9th  
##  7  926649 11th 
##  8 1309082 12th 
##  9  506337 12th 
## 10  180494 10th 
## # ℹ 19,990 more rows
```

---

# Compare to base R

.pull-left[
- Need brackets 
- Need quotes around column names

```r
demo_data[, c("record","age","sex")]
```

```
## # A tibble: 20,000 × 3
##     record age                   sex   
##      <dbl> <chr>                 <chr> 
##  1  931897 15 years old          Female
##  2  333862 17 years old          Female
##  3   36253 18 years old or older Male  
##  4 1095530 15 years old          Male  
##  5 1303997 14 years old          Male  
##  6  261619 17 years old          Male  
##  7  926649 16 years old          Male  
##  8 1309082 17 years old          Male  
##  9  506337 18 years old or older Male  
## 10  180494 14 years old          Male  
## # ℹ 19,990 more rows
```
]
.pull-right[
- No quotes needed and easier to read. 
- More flexible, either of following work:

```r
demo_data %>% select(record, age, sex)
demo_data %>% select(record:sex)
```

```
## # A tibble: 20,000 × 3
##     record age                   sex   
##      <dbl> <chr>                 <chr> 
##  1  931897 15 years old          Female
##  2  333862 17 years old          Female
##  3   36253 18 years old or older Male  
##  4 1095530 15 years old          Male  
##  5 1303997 14 years old          Male  
##  6  261619 17 years old          Male  
##  7  926649 16 years old          Male  
##  8 1309082 17 years old          Male  
##  9  506337 18 years old or older Male  
## 10  180494 14 years old          Male  
## # ℹ 19,990 more rows
## # A tibble: 20,000 × 3
##     record age                   sex   
##      <dbl> <chr>                 <chr> 
##  1  931897 15 years old          Female
##  2  333862 17 years old          Female
##  3   36253 18 years old or older Male  
##  4 1095530 15 years old          Male  
##  5 1303997 14 years old          Male  
##  6  261619 17 years old          Male  
##  7  926649 16 years old          Male  
##  8 1309082 17 years old          Male  
##  9  506337 18 years old or older Male  
## 10  180494 14 years old          Male  
## # ℹ 19,990 more rows
```
…
demo_data %>% select(record, race4, race7, everything())
```

---

# `rename()` `\(\sim\)` columns

- renames column variables

```r
demo_data %>% rename(id = record)   # order: new_name = old_name
```

```
## # A tibble: 20,000 × 8
##         id age                   sex    grade race4         race7   bmi stweight
##      <dbl> <chr>                 <chr>  <chr> <chr>         <chr> <dbl>    <dbl>
##  1  931897 15 years old          Female 10th  White         White  17.2     54.4
##  2  333862 17 years old          Female 12th  White         White  20.2     57.2
##  3   36253 18 years old or older Male   11th  Hispanic/Lat… Hisp…  NA       NA  
##  4 1095530 15 years old          Male   10th  Black or Afr… Blac…  28.0     85.7
##  5 1303997 14 years old          Male   9th   All other ra… Mult…  24.5     66.7
##  6  261619 17 years old          Male   9th   All other ra… <NA>   NA       NA  
##  7  926649 16 years old          Male   11th  All other ra… Asian  20.5     70.3
##  8 1309082 17 years old          Male   12th  White         White  19.3     59.0
##  9  506337 18 years old or older Male   12th  Hispanic/Lat… Hisp…  33.1    123. 
## 10  180494 14 years old          Male   10th  Black or Afr… Blac…  NA       NA  
## # ℹ 19,990 more rows
```
…
# `mutate()`

Use `mutate()` to add new columns to a tibble
* many options in how to define new column of data

```r
newdata <- demo_data %>% 
  mutate(height_m = sqrt(stweight / bmi))   # use = (not <- or ==) to define new variable

newdata %>% select(record, bmi, stweight)
```

```
## # A tibble: 20,000 × 3
##     record   bmi stweight
##      <dbl> <dbl>    <dbl>
##  1  931897  17.2     54.4
##  2  333862  20.2     57.2
##  3   36253  NA       NA  
##  4 1095530  28.0     85.7
##  5 1303997  24.5     66.7
##  6  261619  NA       NA  
##  7  926649  20.5     70.3
##  8 1309082  19.3     59.0
##  9  506337  33.1    123. 
## 10  180494  NA       NA  
## # ℹ 19,990 more rows
```
…
```r
demo_data %>% 
  separate(age,c("a","y","o","w","w2"),
           sep = " ") %>%
  select(a:w2)
```

```
## Warning: Expected 5 pieces. Missing pieces filled with `NA` in 16324 rows [1, 2, 4, 5,
## 6, 7, 8, 10, 11, 12, 13, 14, 15, 16, 17, 19, 22, 23, 24, 25, ...].
```

```
## # A tibble: 20,000 × 5
##    a     y     o     w     w2   
##    <chr> <chr> <chr> <chr> <chr>
##  1 15    years old   <NA>  <NA> 
##  2 17    years old   <NA>  <NA> 
##  3 18    years old   or    older
##  4 15    years old   <NA>  <NA> 
##  5 14    years old   <NA>  <NA> 
##  6 17    years old   <NA>  <NA> 
##  7 16    years old   <NA>  <NA> 
##  8 17    years old   <NA>  <NA> 
##  9 18    years old   or    older
## 10 14    years old   <NA>  <NA> 
## # ℹ 19,990 more rows
```

]
.pull-right[
`unite()`: many columns to one
- paste columns together using a separator
- removes original columns by default

```r
demo_data %>% 
  unite("sexgr", sex, grade, sep=":") %>%
  select(sexgr)
```

```
## # A tibble: 20,000 × 1
##    sexgr      
##    <chr>      
##  1 Female:10th
##  2 Female:12th
##  3 Male:11th  
##  4 Male:10th  
##  5 Male:9th   
##  6 Male:9th   
##  7 Male:11th  
##  8 Male:12th  
##  9 Male:12th  
## 10 Male:10th  
## # ℹ 19,990 more rows
```
…
<!-- TO-DO: rename? -->

---

# Remove rows with missing data

`na.omit` removes *all* rows with *any* missing (`NA`) values in *any* column

```r
demo_data %>% na.omit()
```

```
## # A tibble: 12,897 × 8
##     record age                   sex    grade race4         race7   bmi stweight
##      <dbl> <chr>                 <chr>  <chr> <chr>         <chr> <dbl>    <dbl>
##  1  931897 15 years old          Female 10th  White         White  17.2     54.4
##  2  333862 17 years old          Female 12th  White         White  20.2     57.2
##  3 1095530 15 years old          Male   10th  Black or Afr… Blac…  28.0     85.7
##  4 1303997 14 years old          Male   9th   All other ra… Mult…  24.5     66.7
##  5  926649 16 years old          Male   11th  All other ra… Asian  20.5     70.3
##  6 1309082 17 years old          Male   12th  White         White  19.3     59.0
##  7  506337 18 years old or older Male   12th  Hispanic/Lat… Hisp…  33.1    123. 
##  8 1307180 16 years old          Male   10th  Hispanic/Lat… Hisp…  21.8     66.7
##  9 1312128 15 years old          Female 10th  White         White  22.0     65.8
## 10  770177 16 years old          Female 10th  White         White  32.4     86.2
## # ℹ 12,887 more rows
```
…
```
## [1] 10000     5
```

```
## [1] 20000    12
```
]

```r
merged_data
```

```
## # A tibble: 20,000 × 12
##     record age    sex   grade race4 race7   bmi stweight q8    q12   q31   qn24 
##      <dbl> <chr>  <chr> <chr> <chr> <chr> <dbl>    <dbl> <chr> <chr> <chr> <lgl>
##  1  931897 15 ye… Fema… 10th  White White  17.2     54.4 Neve… <NA>  Yes   TRUE 
##  2  333862 17 ye… Fema… 12th  White White  20.2     57.2 <NA>  <NA>  <NA>  NA   
##  3   36253 18 ye… Male  11th  Hisp… Hisp…  NA       NA   Neve… <NA>  <NA>  NA   
##  4 1095530 15 ye… Male  10th  Blac… Blac…  28.0     85.7 Neve… <NA>  Yes   TRUE 
##  5 1303997 14 ye… Male  9th   All … Mult…  24.5     66.7 <NA>  <NA>  <NA>  NA   
##  6  261619 17 ye… Male  9th   All … <NA>   NA       NA   <NA>  <NA>  <NA>  NA   
##  7  926649 16 ye… Male  11th  All … Asian  20.5     70.3 <NA>  <NA>  <NA>  NA   
##  8 1309082 17 ye… Male  12th  White White  19.3     59.0 Neve… 3 to… No    FALSE
##  9  506337 18 ye… Male  12th  Hisp… Hisp…  33.1    123.  <NA>  <NA>  <NA>  NA   
## 10  180494 14 ye… Male  10th  Blac… Blac…  NA       NA   Neve… <NA>  No    NA   
## # ℹ 19,990 more rows
```
…
